{
  "project_info": {
    "project_number": "264152979210",
    "firebase_url": "https://friendlychat-51447.firebaseio.com",
    "project_id": "friendlychat-51447",
    "storage_bucket": "friendlychat-51447.appspot.com"
  },
  "client": [
    {
      "client_info": {
        "mobilesdk_app_id": "1:264152979210:android:b5d75907de594a2d",
        "android_client_info": {
          "package_name": "com.google.firebase.codelab.friendlychat"
        }
      },
      "oauth_client": [
        {
          "client_id": "264152979210-hlnf3pbkb7siespt3dc5nsfgrcka62ot.apps.googleusercontent.com",
          "client_type": 1,
          "android_info": {
            "package_name": "com.google.firebase.codelab.friendlychat",
            "certificate_hash": "a566bb931f6159f4f88be94b36f3c9085f3e2eb1"
          }
        },
        {
          "client_id": "264152979210-pli6i0oud3gull5tqkqd9hm9vvl9ovpp.apps.googleusercontent.com",
          "client_type": 3
        }
      ],
      "api_key": [
        {
          "current_key": "AIzaSyCMXgBndHP-a6rfVAKVfVkCZRryvRJMU7U"
        }
      ],
      "services": {
        "analytics_service": {
          "status": 1
        },
        "appinvite_service": {
          "status": 2,
          "other_platform_oauth_client": [
            {
              "client_id": "264152979210-pli6i0oud3gull5tqkqd9hm9vvl9ovpp.apps.googleusercontent.com",
              "client_type": 3
            }
          ]
        },
        "ads_service": {
          "status": 2
        }
      }
    }
  ],
  "configuration_version": "1"
}